<svg width="19" height="19" viewBox="0 0 19 19" fill="none" xmlns="http://www.w3.org/2000/svg">
<path d="M18.5 9.5C18.5 14.4706 14.4706 18.5 9.5 18.5C4.52944 18.5 0.5 14.4706 0.5 9.5C0.5 4.52944 4.52944 0.5 9.5 0.5C14.4706 0.5 18.5 4.52944 18.5 9.5Z" stroke="white" stroke-linecap="round" stroke-linejoin="round"/>
<path d="M5.50016 9.5C5.58317 6.27229 6.99122 3.15801 9.5 0.690762C12.0088 3.15801 13.4168 6.27229 13.4998 9.5C13.4168 12.7277 12.0088 15.842 9.5 18.3092C6.99122 15.842 5.58317 12.7277 5.50016 9.5Z" stroke="white" stroke-linecap="round" stroke-linejoin="round"/>
<rect y="9" width="19" height="1" fill="white"/>
</svg>
